[
  {
    "h1": "Krieg der Sterne überall",
    "p0": "Wer sich bis zum neuen \"Star Wars\"-Teil noch einmal die bisherigen Filme ansehen will, hat ab 10. April die Möglichkeit, die Klassiker immer und überall zu genießen.",
    "p1": "Dann erscheint die komplette \"Star Wars\"-Reihe digital...",
    "atitle": "Mehr über Krieg der Sterne überall"
  },
  {
    "h1": "Halbe Brüder",
    "p0": "Auf den ersten Blick haben Julian, Yasin und Addi nichts gemeinsam, bis sie erfahren, dass sie dieselbe Mutter haben.",
    "p1": " Auf einem völlig abgefahrenen Roadtrip suchen die Halben Brüder...",
    "atitle": "Mehr über Halbe Brüder"
  },
  {
    "h1": "Interstellar",
    "p0": "In Christopher Nolans filmischem Meisterwerk \"Interstellar\" ist die Mission von Matthew McConaughey und Anne Hathaway die letzte Rettung der Menschheit",
    "p1": " An den Grenzen der Galaxis. Die Ressourcen der Erde sind verbraucht...",
    "atitle": "Mehr über Interstellar"
  }
]
