[
  {
    "id": "pno1",
    "first_name": "Jeanette",
    "last_name": "Penddreth",
    "position": "CEO at doStuff.com",
    "email": "jpenddreth0@census.gov",
    "gender": "Female"
  },
  {
    "id": "pno2",
    "first_name": "Giavani",
    "last_name": "Frediani",
    "position": "Junior Developer",
    "email": "gfrediani1@senate.gov",
    "gender": "Male"
  },
  {
    "id": "pno3",
    "first_name": "Noell",
    "last_name": "Bea",
    "position": "Senior Developer",
    "email": "nbea2@imageshack.us",
    "gender": "Female"
  },
  {
    "id": "pno4",
    "first_name": "Willard",
    "last_name": "Valek",
    "position": "Junior Developer",
    "email": "wvalek3@vk.com",
    "gender": "Male"
  }
]
